<svg viewBox="0 0 472 131"
  xmlns="http://www.w3.org/2000/svg">
  <path d="M393.105 103.98C392.715 104.176 392.344 104.391 391.992 104.625C391.68 104.82 391.367 105.016 391.055 105.211C390.742 105.367 390.43 105.484 390.117 105.562C389.805 105.641 389.473 105.641 389.121 105.562C388.887 105.562 388.691 105.426 388.535 105.152C388.379 104.84 388.262 104.508 388.184 104.156C388.066 103.766 387.988 103.395 387.949 103.043C387.91 102.652 387.91 102.359 387.949 102.164L393.574 98.9414L393.926 83.9414C394.004 83.4336 394.316 83.2383 394.863 83.3555C395.41 83.4336 395.977 83.5508 396.562 83.707C396.641 83.707 396.758 83.7461 396.914 83.8242C397.109 83.8633 397.246 83.9023 397.324 83.9414C397.246 84.9961 397.148 86.1484 397.031 87.3984C396.953 88.6094 396.875 89.8398 396.797 91.0898C396.719 92.3008 396.66 93.4922 396.621 94.6641C396.621 95.8359 396.68 96.8906 396.797 97.8281L405.586 95.3672C405.742 95.3281 405.859 95.4453 405.938 95.7188C406.055 95.9531 406.152 96.2461 406.23 96.5977C406.348 96.9492 406.426 97.3008 406.465 97.6523C406.504 98.0039 406.523 98.1797 406.523 98.1797L396.562 102.398C396.562 102.75 396.582 103.59 396.621 104.918C396.699 106.246 396.777 107.828 396.855 109.664C396.934 111.461 397.012 113.414 397.09 115.523C397.168 117.594 397.246 119.527 397.324 121.324C397.402 123.121 397.461 124.703 397.5 126.07C397.539 127.398 397.559 128.238 397.559 128.59C397.48 129.762 397.129 130.348 396.504 130.348C395.918 130.348 395.273 130.055 394.57 129.469L393.105 103.98Z" fill="black"/>
  <path d="M428.672 103.395C427.227 102.848 425.84 103.062 424.512 104.039C423.184 105.016 421.914 106.402 420.703 108.199C419.492 109.957 418.34 111.969 417.246 114.234C416.152 116.5 415.137 118.648 414.199 120.68C413.262 122.711 412.402 124.449 411.621 125.895C410.879 127.34 410.195 128.141 409.57 128.297C409.102 128.297 408.73 128.219 408.457 128.062C408.223 127.867 408.105 127.418 408.105 126.715V85.5234C408.105 85.1719 408.242 84.957 408.516 84.8789C408.828 84.8008 409.16 84.7812 409.512 84.8203C409.863 84.8594 410.195 84.957 410.508 85.1133C410.82 85.2305 411.016 85.3672 411.094 85.5234L411.855 118.512C412.285 117.809 412.676 116.832 413.027 115.582C413.418 114.293 413.867 112.926 414.375 111.48C414.883 109.996 415.469 108.531 416.133 107.086C416.836 105.602 417.695 104.273 418.711 103.102C419.727 101.93 420.957 101.031 422.402 100.406C423.887 99.7422 425.625 99.5078 427.617 99.7031C428.945 99.7031 430.02 100.133 430.84 100.992C431.66 101.812 432.09 102.906 432.129 104.273L432.715 127.652C432.715 127.809 432.676 128.043 432.598 128.355C432.559 128.629 432.402 128.863 432.129 129.059C431.895 129.293 431.543 129.43 431.074 129.469C430.645 129.547 430.078 129.449 429.375 129.176L428.672 103.395Z" fill="black"/>
  <path d="M436.582 127.828C436.582 125.289 436.523 122.613 436.406 119.801C436.328 116.988 436.23 114.156 436.113 111.305C436.035 108.414 436.016 105.582 436.055 102.809C436.094 100.035 436.27 97.4375 436.582 95.0156C436.66 94.9766 436.836 94.957 437.109 94.957C437.422 94.918 437.637 94.8984 437.754 94.8984C438.301 94.8984 438.73 94.9961 439.043 95.1914C439.395 95.3477 439.57 95.7188 439.57 96.3047C439.57 98.6094 439.551 101.129 439.512 103.863C439.512 106.559 439.492 109.312 439.453 112.125C439.453 114.898 439.453 117.652 439.453 120.387C439.453 123.121 439.492 125.602 439.57 127.828C439.609 128.492 439.473 128.922 439.16 129.117C438.887 129.352 438.535 129.469 438.105 129.469C437.637 129.469 437.246 129.352 436.934 129.117C436.621 128.922 436.504 128.492 436.582 127.828ZM435.293 85.875C435.293 85.4062 435.449 85.0938 435.762 84.9375C436.074 84.7812 436.426 84.7031 436.816 84.7031C437.598 84.7031 438.086 84.957 438.281 85.4648C438.477 85.9727 438.574 86.5586 438.574 87.2227C438.34 87.6523 438.047 87.9648 437.695 88.1602C437.344 88.3164 436.973 88.3555 436.582 88.2773C436.23 88.1602 435.918 87.9062 435.645 87.5156C435.41 87.125 435.293 86.5781 435.293 85.875Z" fill="black"/>
  <path d="M448.242 128.121C448.242 128.16 448.652 127.926 449.473 127.418C450.332 126.91 451.328 126.246 452.461 125.426C453.633 124.566 454.824 123.648 456.035 122.672C457.246 121.656 458.242 120.699 459.023 119.801C459.805 118.902 460.215 118.141 460.254 117.516C460.332 116.852 459.805 116.422 458.672 116.227C457.266 116.031 456.074 116.051 455.098 116.285C454.16 116.52 453.301 116.793 452.52 117.105C451.738 117.418 450.996 117.711 450.293 117.984C449.629 118.258 448.887 118.355 448.066 118.277C446.348 118.277 445.156 117.75 444.492 116.695C443.867 115.602 443.555 114.137 443.555 112.301C443.555 110.465 443.965 108.727 444.785 107.086C445.605 105.406 446.66 103.961 447.949 102.75C449.238 101.539 450.723 100.582 452.402 99.8789C454.082 99.1367 455.801 98.7656 457.559 98.7656C458.262 98.7656 458.867 98.8242 459.375 98.9414C459.883 99.0586 460.137 99.5078 460.137 100.289C460.137 100.836 459.902 101.363 459.434 101.871C458.965 102.34 458.438 102.574 457.852 102.574C457.812 102.574 457.715 102.555 457.559 102.516C457.402 102.438 457.246 102.34 457.09 102.223C456.934 102.105 456.777 102.027 456.621 101.988C456.465 101.91 456.367 101.871 456.328 101.871C455.078 101.52 453.867 101.695 452.695 102.398C451.523 103.102 450.469 104.059 449.531 105.27C448.633 106.441 447.91 107.73 447.363 109.137C446.816 110.504 446.543 111.734 446.543 112.828C446.543 113.258 446.621 113.609 446.777 113.883C446.973 114.117 447.207 114.293 447.48 114.41C447.793 114.527 448.125 114.605 448.477 114.645C448.867 114.645 449.258 114.645 449.648 114.645C450.43 114.645 451.211 114.527 451.992 114.293C452.812 114.059 453.594 113.785 454.336 113.473C455.117 113.16 455.898 112.887 456.68 112.652C457.5 112.418 458.34 112.301 459.199 112.301C459.59 112.301 460.02 112.418 460.488 112.652C460.957 112.848 461.387 113.16 461.777 113.59C462.168 113.98 462.5 114.449 462.773 114.996C463.047 115.504 463.203 116.07 463.242 116.695C463.477 117.242 463.398 117.965 463.008 118.863C462.656 119.762 462.109 120.719 461.367 121.734C460.625 122.75 459.727 123.785 458.672 124.84C457.617 125.855 456.562 126.793 455.508 127.652C454.453 128.473 453.418 129.137 452.402 129.645C451.387 130.191 450.527 130.445 449.824 130.406C449.043 130.406 448.574 130.172 448.418 129.703C448.301 129.234 448.242 128.707 448.242 128.121Z" fill="black"/>
  <path d="M465.059 100.348C465.059 96.7539 465.137 93.1992 465.293 89.6836C465.449 86.1289 465.645 82.4766 465.879 78.7266C465.996 78.4141 466.133 78.2188 466.289 78.1406C466.445 78.0234 466.66 77.9648 466.934 77.9648C467.324 77.9648 467.598 78.082 467.754 78.3164C467.91 78.5117 468.008 78.7461 468.047 79.0195C468.125 79.293 468.145 79.6055 468.105 79.957C468.105 80.2695 468.105 80.543 468.105 80.7773V98.707C468.105 99.4102 468.164 100.152 468.281 100.934L468.633 103.277C468.789 104.059 468.887 104.801 468.926 105.504C469.004 106.168 468.965 106.734 468.809 107.203C468.73 107.633 468.496 108.004 468.105 108.316C467.754 108.629 467.363 108.785 466.934 108.785C466.23 108.785 465.742 108.434 465.469 107.73C465.195 107.027 465.02 106.207 464.941 105.27C464.902 104.332 464.902 103.395 464.941 102.457C465.02 101.52 465.059 100.816 465.059 100.348ZM468.75 127.594V126.656C468.75 126.461 468.77 126.266 468.809 126.07C468.848 125.836 468.926 125.641 469.043 125.484C469.16 125.328 469.336 125.25 469.57 125.25C470.352 125.25 470.801 125.445 470.918 125.836C471.074 126.188 471.152 126.617 471.152 127.125C471.152 127.672 471.074 128.121 470.918 128.473C470.801 128.824 470.352 129 469.57 129C469.336 129 469.16 128.922 469.043 128.766C468.926 128.609 468.848 128.434 468.809 128.238C468.77 128.004 468.75 127.789 468.75 127.594Z" fill="black"/>
  <path d="M279.063 99.0836C271.764 100.411 267.259 104.252 265.617 110.644C263.487 118.816 268.062 126.954 276.165 129.433C280.565 130.795 287.829 130.307 291.636 128.386C295.268 126.535 298.202 122.833 299.32 118.677C299.599 117.629 299.704 115.778 299.599 113.577C299.459 110.679 299.25 109.771 298.377 107.885C295.723 102.192 290.868 99.3281 283.429 99.0487C281.508 98.9788 279.552 98.9788 279.063 99.0836ZM285.978 107.431C288.842 108.653 290.239 110.958 290.239 114.486C290.204 119.654 287.48 122.274 282.207 122.274C277.352 122.239 274.139 118.572 274.628 113.612C275.047 109.456 278.016 106.907 282.451 106.907C283.673 106.907 285.245 107.151 285.978 107.431Z" fill="black"/>
  <path d="M79.1179 99.6424C79.0131 99.8869 78.9782 106.767 79.0131 114.94L79.1179 129.783H83.4835H87.8491L88.0237 121.121L88.1984 112.495L92.1449 117.384C94.5198 120.353 96.3359 122.274 96.6852 122.239C97.209 122.239 102.308 116.371 104.264 113.508C104.648 112.949 105.067 112.495 105.242 112.495C105.381 112.495 105.486 116.441 105.486 121.226V129.992L109.957 129.887L114.392 129.783L114.497 114.486L114.567 99.2233H110.55C105.801 99.2233 106.813 98.5597 100.981 105.615C98.7807 108.269 96.8598 110.364 96.6852 110.329C96.4756 110.26 94.3452 107.78 91.9004 104.811L87.4649 99.3979L83.3787 99.2931C80.3053 99.2233 79.2226 99.3281 79.1179 99.6424Z" fill="black"/>
  <path d="M131.156 100.271C130.458 101.633 118.059 129.573 118.059 129.783C118.059 129.887 120.19 129.957 122.774 129.957H127.489L127.873 128.979C128.048 128.456 128.641 127.059 129.165 125.836L130.108 123.671L136.709 123.741L143.345 123.845L144.393 126.465C144.986 127.897 145.615 129.294 145.755 129.538C146.069 130.027 155.08 130.167 155.08 129.678C155.08 129.503 154.067 127.128 152.844 124.334C145.266 107.256 142.157 100.201 142.157 99.9219C142.157 99.3631 140.97 99.2234 136.36 99.2234H131.715L131.156 100.271ZM138.909 112.914C140.062 115.743 140.935 118.153 140.83 118.257C140.551 118.537 132.378 118.467 132.378 118.188C132.378 117.943 136.185 108.304 136.465 107.85C136.709 107.431 136.639 107.291 138.909 112.914Z" fill="black"/>
  <path d="M160.144 99.6424C160.039 99.8869 160.004 106.767 160.039 114.94L160.144 129.783H164.614H169.119L169.085 123.915L169.015 118.083H170.726C173.869 118.083 175.127 119.585 178.829 127.862L179.702 129.783L184.696 129.887C187.455 129.922 189.655 129.853 189.585 129.713C189.516 129.573 189.131 128.735 188.712 127.862C185.569 120.982 184.382 118.816 183.089 117.664L181.692 116.406L183.02 115.498C183.788 115.009 184.836 113.857 185.36 112.949C187.385 109.456 186.337 104.287 183.02 101.668C180.365 99.5726 179.597 99.4329 169.469 99.2932C162.1 99.1884 160.283 99.2583 160.144 99.6424ZM174.114 105.545C176 106.034 176.733 106.802 176.978 108.618C177.362 111.342 175.406 112.635 171.215 112.425L169.224 112.32L169.119 109.212C169.05 107.501 169.085 105.894 169.189 105.615C169.434 105.056 171.983 105.021 174.114 105.545Z" fill="black"/>
  <path d="M194.894 114.59V129.957H199.434H203.975V122.972C203.975 119.131 204.079 115.987 204.254 116.022C204.394 116.022 206.454 118.467 208.864 121.471C211.274 124.439 213.823 127.582 214.557 128.421L215.919 129.957H221.297C224.266 129.957 226.676 129.818 226.676 129.678C226.676 129.398 221.682 123.147 215.989 116.302L213.789 113.682L219.342 106.697C222.415 102.89 224.93 99.6424 224.93 99.4678C224.93 99.3281 222.729 99.2233 220.075 99.2233H215.186L209.842 105.859C206.908 109.491 204.394 112.46 204.254 112.495C204.079 112.495 203.975 109.491 203.975 105.859V99.2233H199.434H194.894V114.59Z" fill="black"/>
  <path d="M230.343 99.6424C230.238 99.8869 230.203 106.767 230.238 114.94L230.343 129.783L238.55 129.887C248.469 129.992 251.473 129.678 254.336 128.141C256.676 126.919 259.121 124.334 260.239 121.925C262.09 118.083 261.95 111.936 259.924 107.85C257.689 103.31 253.673 100.585 247.91 99.7123C243.614 99.0836 230.587 99.0138 230.343 99.6424ZM246.513 106.034C249.936 107.047 251.717 109.456 252.066 113.473C252.625 120.388 249.971 123.182 242.567 123.391L239.423 123.496L239.319 114.486L239.249 105.51H241.973C243.475 105.51 245.5 105.754 246.513 106.034Z" fill="black"/>
  <path d="M299.669 99.7122C299.669 99.9916 300.822 102.925 302.219 106.243C303.651 109.596 306.479 116.371 308.575 121.331L312.347 130.341L315.106 130.237L317.865 130.132L321.777 121.47C323.907 116.721 325.758 112.844 325.863 112.844C326.002 112.844 327.819 116.721 329.914 121.47L333.756 130.132H336.515H339.239L345.84 114.8C349.437 106.383 352.406 99.4328 352.406 99.363C352.406 99.2582 350.275 99.2582 347.621 99.2931L342.871 99.3979L339.728 107.501C337.982 111.971 336.48 115.638 336.34 115.638C336.201 115.638 335.188 113.473 334.105 110.818C332.987 108.199 331.416 104.497 330.613 102.646L329.181 99.2233H325.968C322.161 99.2233 323.069 98.1057 318.703 108.304C317.027 112.25 315.525 115.568 315.42 115.708C315.281 115.848 313.953 112.634 312.452 108.548C310.915 104.462 309.483 100.725 309.204 100.166L308.715 99.2233H304.209C300.542 99.2233 299.669 99.3281 299.669 99.7122Z" fill="black"/>
  <path d="M356.771 99.6424C356.667 99.8869 356.632 106.767 356.667 114.94L356.771 129.783H361.312H365.852L366.027 121.471L366.201 113.158L369.659 116.93C371.58 118.991 375.072 122.798 377.482 125.312L381.848 129.957H385.794H389.775V114.94C389.775 106.662 389.775 99.817 389.775 99.6424C389.775 99.5027 387.785 99.3979 385.34 99.3979H380.87L380.765 107.78L380.695 116.162L379.542 114.905C378.355 113.543 370.881 105.58 367.109 101.598L364.874 99.2233H360.893C358.029 99.2233 356.876 99.363 356.771 99.6424Z" fill="black"/>
  <path d="M105.931 0.327058C85.4575 2.65504 65.6217 15.9532 51.303 36.9687C44.9252 46.3444 40.3329 56.1028 37.3671 66.5945C36.4423 69.8793 35.3262 75.5238 35.5495 75.7789C35.6132 75.8108 36.602 74.5353 37.718 72.9089C56.1505 46.7271 73.9452 27.9758 92.5371 15.1559L94.291 13.9441L92.8559 15.1878C92.0905 15.8575 90.2408 17.452 88.7102 18.7595C73.3073 32.0258 59.5945 47.1417 46.3601 65.3509C44.1279 68.4442 38.4195 77.1501 35.6132 81.7425L32.6793 86.5579L23.24 86.7173C11.887 86.9085 12.6524 86.5897 12.6524 90.9906C12.6524 95.7741 10.6752 95.3275 31.3399 95.3275H48.8158L49.294 94.626C49.6767 94.1157 49.8043 93.1272 49.8043 90.9587C49.8043 86.5897 49.9958 86.7173 42.6292 86.7173C39.3762 86.7173 36.7293 86.6534 36.7293 86.5897C36.7293 86.5258 37.2716 85.4736 37.9732 84.2618L39.2168 82.0931L43.6177 81.9019C50.5058 81.5828 57.1072 80.2755 63.8359 77.8837C67.2483 76.7038 76.7833 72.0478 78.314 70.836C79.3345 70.0387 79.4621 70.1344 75.1249 68.4123C70.8837 66.7542 65.0796 64.9045 59.7541 63.5651C57.1708 62.9272 55.0024 62.3533 54.9066 62.2576C54.556 61.8748 68.6832 62.4809 71.8085 62.9591C73.6582 63.2142 77.2616 63.9797 79.8448 64.6175L84.5327 65.7654L85.4893 64.9363C86.9244 63.7245 91.6441 58.6221 93.2704 56.4855C97.6076 50.8728 103.22 40.6681 106.25 32.9188C107.972 28.5498 111.097 19.6843 110.938 19.5568C110.682 19.3016 103.412 18.7914 99.7443 18.7914C97.4801 18.7914 95.6941 18.7276 95.7898 18.632C96.2044 18.2174 104.974 16.6867 110.395 16.0807L112.149 15.8894L114.254 8.10825C115.912 1.85778 116.263 0.295168 115.881 0.135717C115.243 -0.119403 108.705 0.00815691 105.931 0.327058ZM43.7452 90.863V94.052H42.1507H40.5562V90.863V87.6739H42.1507H43.7452V90.863Z" fill="black"/>
  <path fill-rule="evenodd" clip-rule="evenodd" d="M16.6386 99.9517V104.257H12.174C7.39051 104.257 6.08303 104.544 4.5842 105.947C3.05346 107.382 2.6708 108.753 1.17196 118.512C-0.390655 128.78 -0.390655 128.972 1.17196 130.407L2.03299 131.204L30.7659 131.3C51.909 131.363 59.7541 131.268 60.4238 131.013C61.6356 130.502 62.5604 129.227 62.5604 128.047C62.5604 127.505 61.9862 123.104 61.2529 118.288C59.7859 108.339 59.3075 106.872 57.0753 105.341C55.7996 104.448 55.672 104.416 50.8885 104.32L46.0094 104.225L45.9137 100.015L45.8179 95.806L31.2444 95.7103L16.6386 95.6466V99.9517ZM42.1507 101.068V102.981H40.8752H39.5995V101.068V99.1545H40.8752H42.1507V101.068ZM50.5697 107.063C50.6333 107.191 51.2394 111.687 51.8454 117.013C52.024 118.515 52.1981 119.983 52.3577 121.33C52.7674 124.789 53.0839 127.46 53.1527 127.919L53.3123 129.131H49.9636C48.1142 129.131 46.6152 129.067 46.6152 128.972C46.6152 128.589 44.3831 109.423 44.1916 108.339C44.0322 107.223 44.064 107.159 45.0846 107.031C47.0618 106.808 50.4103 106.808 50.5697 107.063ZM13.371 113.434V123.645H32.0622V113.434H13.371ZM10.8042 113.233C10.8042 111.937 11.8491 110.867 13.1612 110.867H32.2719C33.5841 110.867 34.629 111.937 34.629 113.233V123.846C34.629 125.142 33.5841 126.212 32.2719 126.212H13.1612C11.8491 126.212 10.8042 125.142 10.8042 123.846V113.233ZM14.7717 114.858V122.221H16.919V117.998L19.0663 120.705L21.2134 117.998V122.221H23.3609V114.858H21.2134L19.0663 117.565L16.919 114.858H14.7717ZM24.9713 118.648L28.1922 122.221L31.413 118.648H29.2656V114.858H27.1185V118.648H24.9713Z" fill="black"/>
</svg>